<?xml version="1.0" encoding="UTF-8" standalone="no"?>
<!-- Created with Inkscape (http://www.inkscape.org/) -->

<svg
   xmlns:dc="http://purl.org/dc/elements/1.1/"
   xmlns:cc="http://creativecommons.org/ns#"
   xmlns:rdf="http://www.w3.org/1999/02/22-rdf-syntax-ns#"
   xmlns:svg="http://www.w3.org/2000/svg"
   xmlns="http://www.w3.org/2000/svg"
   xmlns:sodipodi="http://sodipodi.sourceforge.net/DTD/sodipodi-0.dtd"
   xmlns:inkscape="http://www.inkscape.org/namespaces/inkscape"
   width="100mm"
   height="100mm"
   viewBox="0 0 354.33071 354.3307"
   id="svg3672"
   version="1.1"
   inkscape:version="0.92.3 (2405546, 2018-03-11)"
   sodipodi:docname="logo_black_square.svg">
  <defs
     id="defs3674" />
  <sodipodi:namedview
     id="base"
     pagecolor="#ffffff"
     bordercolor="#666666"
     borderopacity="1.0"
     inkscape:pageopacity="0.0"
     inkscape:pageshadow="2"
     inkscape:zoom="1.979899"
     inkscape:cx="95.202742"
     inkscape:cy="183.51328"
     inkscape:document-units="px"
     inkscape:current-layer="layer1"
     showgrid="false"
     fit-margin-top="0"
     fit-margin-left="0"
     fit-margin-right="0"
     fit-margin-bottom="0"
     borderlayer="true"
     inkscape:window-width="2560"
     inkscape:window-height="1360"
     inkscape:window-x="0"
     inkscape:window-y="26"
     inkscape:window-maximized="1"
     inkscape:pagecheckerboard="true">
    <inkscape:grid
       type="xygrid"
       id="grid3728" />
  </sodipodi:namedview>
  <metadata
     id="metadata3677">
    <rdf:RDF>
      <cc:Work
         rdf:about="">
        <dc:format>image/svg+xml</dc:format>
        <dc:type
           rdf:resource="http://purl.org/dc/dcmitype/StillImage" />
        <dc:title />
      </cc:Work>
    </rdf:RDF>
  </metadata>
  <g
     inkscape:label="Calque 1"
     inkscape:groupmode="layer"
     id="layer1"
     transform="translate(-176.76843,-100.50724)">
    <g
       id="g24">
      <g
         transform="matrix(0.71970671,0,0,0.67555171,194.71246,115.00381)"
         id="g3609">
        <path
           style="font-style:normal;font-variant:normal;font-weight:500;font-stretch:normal;font-size:medium;line-height:125%;font-family:'Lucida Grande';-inkscape-font-specification:'Lucida Grande, Medium';text-align:start;letter-spacing:0px;word-spacing:0px;writing-mode:lr-tb;text-anchor:start;fill:#000000;fill-opacity:1;stroke:none;stroke-width:1px;stroke-linecap:butt;stroke-linejoin:miter;stroke-opacity:1"
           inkscape:connector-curvature="0"
           id="path3491"
           d="m 377.20599,429.66139 12.71597,14.32437 q 19.3651,-44.87483 15.11714,-88.56234 -4.18827,-43.92882 -30.92918,-74.05211 -26.64741,-30.01797 -69.67649,-39.27887 -42.96938,-9.50222 -89.82341,4.40669 l 12.71596,14.32437 q 37.4929,-3.15065 64.2005,7.79282 26.86088,10.80741 52.3863,39.56146 25.61891,28.85938 33.16592,56.81201 7.70029,27.81657 0.12729,64.6716 z" />
        <path
           style="font-style:normal;font-variant:normal;font-weight:500;font-stretch:normal;font-size:medium;line-height:125%;font-family:'Lucida Grande';-inkscape-font-specification:'Lucida Grande, Medium';text-align:start;letter-spacing:0px;word-spacing:0px;writing-mode:lr-tb;text-anchor:start;fill:#000000;fill-opacity:1;stroke:none;stroke-width:1px;stroke-linecap:butt;stroke-linejoin:miter;stroke-opacity:1"
           inkscape:connector-curvature="0"
           id="path3494"
           d="m 342.52137,230.86172 1.03016,8.27718 q 18.01856,-11.32782 27.27005,-28.05391 9.33248,-16.79805 7.16611,-34.20443 -2.15881,-17.34559 -15.31654,-31.28265 -13.07672,-14.009 -33.32226,-20.57451 l 1.03016,8.27718 q 14.23239,8.11735 21.11776,18.63236 6.97386,10.50409 9.04176,27.11931 2.07548,16.67609 -2.11086,28.56907 -4.09787,11.88207 -15.90634,23.2404 z" />
        <path
           style="font-style:normal;font-variant:normal;font-weight:500;font-stretch:normal;font-size:medium;line-height:125%;font-family:'Lucida Grande';-inkscape-font-specification:'Lucida Grande, Medium';text-align:start;letter-spacing:0px;word-spacing:0px;writing-mode:lr-tb;text-anchor:start;fill:#000000;fill-opacity:1;stroke:none;stroke-width:1px;stroke-linecap:butt;stroke-linejoin:miter;stroke-opacity:1"
           inkscape:connector-curvature="0"
           id="path3497"
           d="m 323.19346,109.45749 9.45805,2.65757 q -4.08027,-24.734075 -18.02227,-42.411017 -13.98314,-17.797769 -33.8729,-23.38649 -19.82025,-5.569191 -40.95729,2.360344 -21.17808,7.80873 -37.54396,26.797743 l 9.45812,2.65759 q 15.3076,-11.751407 29.86709,-14.430993 14.58783,-2.780766 33.57359,2.553944 19.05526,5.354241 30.05989,15.326098 11.03297,9.870678 17.97968,27.875211 z" />
      </g>
      <g
         transform="matrix(0.71970671,0,0,0.67555171,194.71246,115.00381)"
         id="g3614">
        <path
           style="font-style:normal;font-variant:normal;font-weight:500;font-stretch:normal;font-size:medium;line-height:125%;font-family:'Lucida Grande';-inkscape-font-specification:'Lucida Grande, Medium';text-align:start;letter-spacing:0px;word-spacing:0px;writing-mode:lr-tb;text-anchor:start;fill:#000000;fill-opacity:1;stroke:none;stroke-width:1px;stroke-linecap:butt;stroke-linejoin:miter;stroke-opacity:1"
           inkscape:connector-curvature="0"
           id="path3500"
           d="m 202.06309,430.37567 12.71597,14.32437 q 19.3651,-44.87483 15.11714,-88.56234 -4.18827,-43.92882 -30.92918,-74.05211 -26.64741,-30.01797 -69.67649,-39.27887 -42.969385,-9.50222 -89.823407,4.40669 l 12.715961,14.32437 q 37.492895,-3.15065 64.200496,7.79282 26.86088,10.80741 52.3863,39.56146 25.61891,28.85938 33.16592,56.81201 7.70029,27.81657 0.12729,64.6716 z" />
        <path
           style="font-style:normal;font-variant:normal;font-weight:500;font-stretch:normal;font-size:medium;line-height:125%;font-family:'Lucida Grande';-inkscape-font-specification:'Lucida Grande, Medium';text-align:start;letter-spacing:0px;word-spacing:0px;writing-mode:lr-tb;text-anchor:start;fill:#000000;fill-opacity:1;stroke:none;stroke-width:1px;stroke-linecap:butt;stroke-linejoin:miter;stroke-opacity:1"
           inkscape:connector-curvature="0"
           id="path3503"
           d="m 167.37847,231.576 1.03016,8.27718 q 18.01856,-11.32782 27.27005,-28.05391 9.33248,-16.79805 7.16611,-34.20443 -2.15881,-17.34559 -15.31654,-31.28265 -13.07672,-14.009 -33.32226,-20.57451 l 1.03016,8.27718 q 14.23239,8.11735 21.11776,18.63236 6.97386,10.50409 9.04176,27.11931 2.07548,16.67609 -2.11086,28.56907 -4.09787,11.88207 -15.90634,23.2404 z" />
        <path
           style="font-style:normal;font-variant:normal;font-weight:500;font-stretch:normal;font-size:medium;line-height:125%;font-family:'Lucida Grande';-inkscape-font-specification:'Lucida Grande, Medium';text-align:start;letter-spacing:0px;word-spacing:0px;writing-mode:lr-tb;text-anchor:start;fill:#000000;fill-opacity:1;stroke:none;stroke-width:1px;stroke-linecap:butt;stroke-linejoin:miter;stroke-opacity:1"
           inkscape:connector-curvature="0"
           id="path3506"
           d="m 148.05056,110.17177 9.45805,2.65757 Q 153.42834,88.095265 139.48634,70.418323 125.5032,52.620554 105.61344,47.031833 85.793186,41.462642 64.656152,49.392177 43.478066,57.200907 27.11219,76.18992 l 9.458125,2.65759 q 15.307596,-11.751407 29.867084,-14.430993 14.587832,-2.780766 33.573591,2.553944 19.05526,5.354241 30.05989,15.326098 11.03297,9.870678 17.97968,27.875211 z" />
      </g>
    </g>
  </g>
</svg>
